solid baffle1
 facet normal -1 -0 -0
  outer loop
   vertex 0.07 1e-10 0.49
   vertex 0.07 1e-10 0.01
   vertex 0.07 0 0.49
  endloop
 endfacet
 facet normal -1 0 0.01
  outer loop
   vertex 0.07 1e-10 0.01
   vertex 0.07 0 0.01
   vertex 0.07 0 0.49
  endloop
 endfacet
 facet normal 1 -0 0.01
  outer loop
   vertex 0.102 0 0.49
   vertex 0.102 1e-10 0.01
   vertex 0.102 1e-10 0.49
  endloop
 endfacet
 facet normal 1 0 0.01
  outer loop
   vertex 0.102 0 0.49
   vertex 0.102 0 0.01
   vertex 0.102 1e-10 0.01
  endloop
 endfacet
 facet normal 0 -1 0.01
  outer loop
   vertex 0.07 0 0.01
   vertex 0.102 0 0.01
   vertex 0.102 0 0.49
  endloop
 endfacet
 facet normal 0 -1 0.01
  outer loop
   vertex 0.07 0 0.49
   vertex 0.07 0 0.01
   vertex 0.102 0 0.49
  endloop
 endfacet
 facet normal 0 1 0.01
  outer loop
   vertex 0.102 1e-10 0.49
   vertex 0.102 1e-10 0.01
   vertex 0.07 1e-10 0.01
  endloop
 endfacet
 facet normal 0 1 0.01
  outer loop
   vertex 0.102 1e-10 0.49
   vertex 0.07 1e-10 0.01
   vertex 0.07 1e-10 0.49
  endloop
 endfacet
 facet normal 0 0 -1
  outer loop
   vertex 0.07 0 0.01
   vertex 0.07 1e-10 0.01
   vertex 0.102 0 0.01
  endloop
 endfacet
 facet normal 0 0 -1
  outer loop
   vertex 0.102 0 0.01
   vertex 0.07 1e-10 0.01
   vertex 0.102 1e-10 0.01
  endloop
 endfacet
 facet normal 0 0 1
  outer loop
   vertex 0.102 0 0.49
   vertex 0.07 1e-10 0.49
   vertex 0.07 0 0.49
  endloop
 endfacet
 facet normal 0 0 1
  outer loop
   vertex 0.102 1e-10 0.49
   vertex 0.07 1e-10 0.49
   vertex 0.102 0 0.49
  endloop
 endfacet
endsolid baffle1
solid baffle2
 facet normal -1 -0 -0
  outer loop
   vertex -0.102 1e-10 0.49
   vertex -0.102 1e-10 0.01
   vertex -0.102 0 0.49
  endloop
 endfacet
 facet normal -1 0 0.01
  outer loop
   vertex -0.102 1e-10 0.01
   vertex -0.102 0 0.01
   vertex -0.102 0 0.49
  endloop
 endfacet
 facet normal 1 -0 0.01
  outer loop
   vertex -0.07 0 0.49
   vertex -0.07 1e-10 0.01
   vertex -0.07 1e-10 0.49
  endloop
 endfacet
 facet normal 1 0 0.01
  outer loop
   vertex -0.07 0 0.49
   vertex -0.07 0 0.01
   vertex -0.07 1e-10 0.01
  endloop
 endfacet
 facet normal 0 -1 0.01
  outer loop
   vertex -0.102 0 0.01
   vertex -0.07 0 0.01
   vertex -0.07 0 0.49
  endloop
 endfacet
 facet normal 0 -1 0.01
  outer loop
   vertex -0.102 0 0.49
   vertex -0.102 0 0.01
   vertex -0.07 0 0.49
  endloop
 endfacet
 facet normal 0 1 0.01
  outer loop
   vertex -0.07 1e-10 0.49
   vertex -0.07 1e-10 0.01
   vertex -0.102 1e-10 0.01
  endloop
 endfacet
 facet normal 0 1 0.01
  outer loop
   vertex -0.07 1e-10 0.49
   vertex -0.102 1e-10 0.01
   vertex -0.102 1e-10 0.49
  endloop
 endfacet
 facet normal 0 0 -1
  outer loop
   vertex -0.102 0 0.01
   vertex -0.102 1e-10 0.01
   vertex -0.07 0 0.01
  endloop
 endfacet
 facet normal 0 0 -1
  outer loop
   vertex -0.07 0 0.01
   vertex -0.102 1e-10 0.01
   vertex -0.07 1e-10 0.01
  endloop
 endfacet
 facet normal 0 0 1
  outer loop
   vertex -0.07 0 0.49
   vertex -0.102 1e-10 0.49
   vertex -0.102 0 0.49
  endloop
 endfacet
 facet normal 0 0 1
  outer loop
   vertex -0.07 1e-10 0.49
   vertex -0.102 1e-10 0.49
   vertex -0.07 0 0.49
  endloop
 endfacet
endsolid baffle2
solid baffle3
 facet normal -1 -0 -0
  outer loop
   vertex 0 0.102 0.49
   vertex 0 0.102 0.01
   vertex 0 0.07 0.49
  endloop
 endfacet
 facet normal -1 0 0.01
  outer loop
   vertex 0 0.102 0.01
   vertex 0 0.07 0.01
   vertex 0 0.07 0.49
  endloop
 endfacet
 facet normal 1 -0 0.01
  outer loop
   vertex 1e-10 0.07 0.49
   vertex 1e-10 0.102 0.01
   vertex 1e-10 0.102 0.49
  endloop
 endfacet
 facet normal 1 0 0.01
  outer loop
   vertex 1e-10 0.07 0.49
   vertex 1e-10 0.07 0.01
   vertex 1e-10 0.102 0.01
  endloop
 endfacet
 facet normal 0 -1 0.01
  outer loop
   vertex 0 0.07 0.01
   vertex 1e-10 0.07 0.01
   vertex 1e-10 0.07 0.49
  endloop
 endfacet
 facet normal 0 -1 0.01
  outer loop
   vertex 0 0.07 0.49
   vertex 0 0.07 0.01
   vertex 1e-10 0.07 0.49
  endloop
 endfacet
 facet normal 0 1 0.01
  outer loop
   vertex 1e-10 0.102 0.49
   vertex 1e-10 0.102 0.01
   vertex 0 0.102 0.01
  endloop
 endfacet
 facet normal 0 1 0.01
  outer loop
   vertex 1e-10 0.102 0.49
   vertex 0 0.102 0.01
   vertex 0 0.102 0.49
  endloop
 endfacet
 facet normal 0 0 -1
  outer loop
   vertex 1e-10 0.07 0.01
   vertex 0 0.07 0.01
   vertex 0 0.102 0.01
  endloop
 endfacet
 facet normal 0 0 -1
  outer loop
   vertex 1e-10 0.07 0.01
   vertex 0 0.102 0.01
   vertex 1e-10 0.102 0.01
  endloop
 endfacet
 facet normal 0 0 1
  outer loop
   vertex 0 0.102 0.49
   vertex 0 0.07 0.49
   vertex 1e-10 0.07 0.49
  endloop
 endfacet
 facet normal 0 0 1
  outer loop
   vertex 1e-10 0.102 0.49
   vertex 0 0.102 0.49
   vertex 1e-10 0.07 0.49
  endloop
 endfacet
endsolid baffle3
solid baffle4
 facet normal -1 -0 -0
  outer loop
   vertex 0 -0.07 0.49
   vertex 0 -0.07 0.01
   vertex 0 -0.102 0.49
  endloop
 endfacet
 facet normal -1 0 0.01
  outer loop
   vertex 0 -0.07 0.01
   vertex 0 -0.102 0.01
   vertex 0 -0.102 0.49
  endloop
 endfacet
 facet normal 1 -0 0.01
  outer loop
   vertex 1e-10 -0.102 0.49
   vertex 1e-10 -0.07 0.01
   vertex 1e-10 -0.07 0.49
  endloop
 endfacet
 facet normal 1 0 0.01
  outer loop
   vertex 1e-10 -0.102 0.49
   vertex 1e-10 -0.102 0.01
   vertex 1e-10 -0.07 0.01
  endloop
 endfacet
 facet normal 0 -1 0.01
  outer loop
   vertex 0 -0.102 0.01
   vertex 1e-10 -0.102 0.01
   vertex 1e-10 -0.102 0.49
  endloop
 endfacet
 facet normal 0 -1 0.01
  outer loop
   vertex 0 -0.102 0.49
   vertex 0 -0.102 0.01
   vertex 1e-10 -0.102 0.49
  endloop
 endfacet
 facet normal 0 1 0.01
  outer loop
   vertex 1e-10 -0.07 0.49
   vertex 1e-10 -0.07 0.01
   vertex 0 -0.07 0.01
  endloop
 endfacet
 facet normal 0 1 0.01
  outer loop
   vertex 1e-10 -0.07 0.49
   vertex 0 -0.07 0.01
   vertex 0 -0.07 0.49
  endloop
 endfacet
 facet normal 0 0 -1
  outer loop
   vertex 1e-10 -0.102 0.01
   vertex 0 -0.102 0.01
   vertex 0 -0.07 0.01
  endloop
 endfacet
 facet normal 0 0 -1
  outer loop
   vertex 1e-10 -0.102 0.01
   vertex 0 -0.07 0.01
   vertex 1e-10 -0.07 0.01
  endloop
 endfacet
 facet normal 0 0 1
  outer loop
   vertex 0 -0.07 0.49
   vertex 0 -0.102 0.49
   vertex 1e-10 -0.102 0.49
  endloop
 endfacet
 facet normal 0 0 1
  outer loop
   vertex 1e-10 -0.07 0.49
   vertex 0 -0.07 0.49
   vertex 1e-10 -0.102 0.49
  endloop
 endfacet
endsolid baffle4
